{
    "info": {
        "app-name": "gcabuilder",
        "app-author": "agratoth",
        "app-company": "Komplizierte Technologien GMBH"
    },
    "version": {
        "major": 0,
        "minor": 2,
        "build": 31,
        "autoincrement": true
    },
    "build": {
        "prebuild-command": "",
        "proto": "version.proto",
        "target": "version.go",
        "output": "",
        "build-type": "goinstall",
        "build-command": "",
        "postbuild-command": ""
    },
    "release": {
        "prerelease-command": "",
        "usethread": true,
        "usebranch": true,
        "autopush": true,
        "current-thread": "",
        "staticbranch": "",
        "protobranch": "v.{version}",
        "protocommit": "[v.{version}] {commit} - {datetime}",
        "postrealese-command": ""
    }
}